{
  "LuaSnip": { "branch": "master", "commit": "33b06d72d220aa56a7ce80a0dd6f06c70cd82b9d" },
  "cmp-nvim-lsp": { "branch": "main", "commit": "99290b3ec1322070bcfb9e846450a46f6efa50f0" },
  "cmp-path": { "branch": "main", "commit": "91ff86cd9c29299a64f968ebb45846c485725f23" },
  "cmp_luasnip": { "branch": "master", "commit": "98d9cb5c2c38532bd9bdb481067b20fea8f32e90" },
  "conform.nvim": { "branch": "master", "commit": "339b3e4519ec49312d34fcfa275aa15bfaa67025" },
  "fidget.nvim": { "branch": "main", "commit": "9238947645ce17d96f30842e61ba81147185b657" },
  "gitsigns.nvim": { "branch": "main", "commit": "5f808b5e4fef30bd8aca1b803b4e555da07fc412" },
  "gruvbox.nvim": { "branch": "main", "commit": "68c3460a5d1d1a362318960035c9f3466d5011f5" },
  "harpoon": { "branch": "harpoon2", "commit": "a84ab829eaf3678b586609888ef52f7779102263" },
  "lazy.nvim": { "branch": "main", "commit": "7e6c863bc7563efbdd757a310d17ebc95166cef3" },
  "lazydev.nvim": { "branch": "main", "commit": "8620f82ee3f59ff2187647167b6b47387a13a018" },
  "lualine.nvim": { "branch": "master", "commit": "2a5bae925481f999263d6f5ed8361baef8df4f83" },
  "luvit-meta": { "branch": "main", "commit": "57d464c4acb5c2e66bd4145060f5dc9e96a7bbb7" },
  "mason-lspconfig.nvim": { "branch": "main", "commit": "2daa8921b7afdcfa47419a21ea343c3df6d74fa0" },
  "mason-tool-installer.nvim": { "branch": "main", "commit": "c5e07b8ff54187716334d585db34282e46fa2932" },
  "mason.nvim": { "branch": "main", "commit": "e2f7f9044ec30067bc11800a9e266664b88cda22" },
  "mini.nvim": { "branch": "main", "commit": "2011aff270bcd3e1f3ad088253ace2d574967bed" },
  "nvim-autopairs": { "branch": "master", "commit": "b464658e9b880f463b9f7e6ccddd93fb0013f559" },
  "nvim-cmp": { "branch": "main", "commit": "b555203ce4bd7ff6192e759af3362f9d217e8c89" },
  "nvim-lspconfig": { "branch": "master", "commit": "c580f34bc5fdca8aaf737a9ab8a5d775cb940e57" },
  "nvim-treesitter": { "branch": "master", "commit": "b4897f5a8453e7efeafb21ff5b2bbdc2e3faf1bd" },
  "plenary.nvim": { "branch": "master", "commit": "2d9b06177a975543726ce5c73fca176cedbffe9d" },
  "telescope-fzf-native.nvim": { "branch": "main", "commit": "dae2eac9d91464448b584c7949a31df8faefec56" },
  "telescope-ui-select.nvim": { "branch": "master", "commit": "6e51d7da30bd139a6950adf2a47fda6df9fa06d2" },
  "telescope.nvim": { "branch": "0.1.x", "commit": "a0bbec21143c7bc5f8bb02e0005fa0b982edc026" },
  "todo-comments.nvim": { "branch": "main", "commit": "ae0a2afb47cf7395dc400e5dc4e05274bf4fb9e0" },
  "vim-sleuth": { "branch": "master", "commit": "be69bff86754b1aa5adcbb527d7fcd1635a84080" },
  "which-key.nvim": { "branch": "main", "commit": "8ab96b38a2530eacba5be717f52e04601eb59326" }
}
